M48
;Layer_Color=9474304
;FILE_FORMAT=2:5
INCH,TZ
;TYPE=PLATED
T1F00S00C0.01181
T2F00S00C0.01378
T3F00S00C0.01772
T4F00S00C0.03150
T5F00S00C0.03400
T6F00S00C0.03937
T7F00S00C0.04331
T8F00S00C0.04921
T9F00S00C0.07874
T10F00S00C0.11811
%
T01
X227226Y110863
X230288Y107801
X234326Y106235
X238657
X242987
X247318
X251649
X255979
X260310
X259914Y111765
X255583
X264245Y111782
X242591Y111765
X238261
X233935Y111975
X230873Y115038
T02
X70500Y17000
X82500
X94500
X106500
X100500Y29000
X88500
X76500
X130500Y17000
X136500Y29000
X148500
X220500
X232500
X226500Y17000
X262500
X274500
X286500
X280500Y29000
X268500
X256500
X292500
X286500Y41000
X280500Y77000
X274500Y89000
X262500
X268500Y101000
X256500
X244500
X232500
X222200Y111100
X210500Y118000
X206800Y114800
X204100Y105100
X195000Y106000
X196500Y110500
X195600Y98600
X208600
X208500Y77000
X220500
X232500
X238500Y65000
X214500
X202500
X190500
X196500Y77000
Y53000
X202500Y41000
X190500
X182300Y41900
X176300Y41800
X154600Y41700
X149100
X142500Y41000
X136500Y77000
X138700Y98300
X133900Y98200
X142500Y106500
X148000Y106350
X153500Y106400
X166500Y105700
X172500
X178000
X182800Y105800
X182700Y98500
X177900Y98400
X180300Y95500
X175500Y95400
X170000
X172400Y98400
X166400
X166500Y89000
X172000Y114500
X178000Y119000
X183000Y113500
X186500Y134500
X190500Y137000
X189500Y141000
Y145000
X202500Y142500
X203500Y146500
X218000Y145500
Y141100
Y129600
X194500Y131500
X166500Y139500
X167500Y145500
Y152000
Y158500
X157200Y161300
X153400Y161200
X155500Y165300
X157000Y174500
Y180500
X154500Y185000
X172000Y180000
X182600Y162100
X214600Y167300
X216500Y169500
X212500
X232000Y150800
X229900Y147800
X230000Y143600
X238500Y137000
X244500Y149000
X262500Y137000
X274500
X256500Y125000
X153398Y124000
X146900Y132400
X148500Y149000
X145400Y151500
X141400Y152300
X141600Y147400
X132500Y116500
X127000Y109500
X124000
X124500Y101000
X128400Y98200
X130500Y89000
X124500Y77000
X112500
X100500
X88500
X76500
X82500Y65000
X94500
X106500
X118500
X112500Y53000
X100500
X88500
X76500
X82500Y41000
X94500
X106500
X118500
X130500
X70500
Y65000
Y89000
X106500
X112500Y101000
X109130Y116843
X118000Y115000
X106500Y137000
X94500
X84400Y128350
X76500Y125000
X124500Y149000
X100500Y293000
X88500
X94500Y305000
X100500Y317000
X112500
X106500Y329000
X112500Y341000
X130500Y329000
X76500Y317000
X58500Y305000
X46500
X34500
X22500
X10500
X28500Y317000
X22500Y281000
Y257000
X10500
X40500Y269000
X58500Y281000
X52500Y293000
X184500
X190800Y279200
X194700Y275100
X207600Y277300
X207700Y270200
Y263400
Y253400
X193900Y251700
X194100Y256800
X190200Y254400
X189600Y248800
X186200Y247500
Y252100
X181700Y252000
X172500Y245000
X174400Y240400
X178400Y236500
X176000Y225000
X172500Y224000
Y221000
X177500Y220500
X171500Y228500
X174200Y207600
X171900Y203900
X176900Y204000
X176079Y197000
X172100Y191600
X157000Y193500
Y187000
Y200000
Y206000
X154500Y209000
X157000Y212000
X205200Y219700
X205100Y225100
X208500Y293000
Y317000
X220500
X214500Y329000
X220500Y341000
X244500
X238500Y329000
X262500
X274500
X286500
X268500Y317000
X194500Y318500
X184500Y317000
X178500Y329000
X175700Y280100
X172200Y277800
X169500Y274700
X167700Y270600
X167000Y266200
X292500Y293000
X304500
X316500
X328500
X334500Y305000
X352500Y293000
Y269000
X346500Y257000
X310500Y281000
X298500Y305000
X316500Y317000
T03
X199000Y337500
T04
X154026Y12157
X161900
X169774
Y22000
X161900
X154026
X159200Y124200
X157121Y133982
X155042Y143763
X152963Y153544
X133708Y149452
X135787Y139670
X137866Y129889
X139945Y120107
X249250Y116000
X249200Y146000
T05
X193700Y18400
X203700
X214200
T06
X149500Y93500
X159500
X203500Y93667
X213500
X273876Y97400
Y107243
X284900
Y97400
X212500Y177000
X88724Y106142
Y96300
X77700
X77700Y106142
X80587Y304000
X69760
X65528Y295693
X69760Y324000
X80587
X122760Y319500
X118528Y311193
X122760Y339500
X27240Y294000
X16413
Y274000
X27240
X12181Y265693
X163193Y285528
X171500Y289760
X171500Y300587
X171681Y315193
X175913Y323500
X186740
X191500Y300587
X191500Y289760
X225028Y309193
X229260Y317500
X240087
Y337500
X229260
X282260Y322000
Y302000
X278028Y293693
X212500Y247000
Y237000
Y227000
Y217000
Y207000
Y197000
Y187000
X133587Y319500
Y339500
X293087Y322000
Y302000
X335260Y294000
X346087
Y274000
X335260
X331028Y265693
X186740Y343500
X175913
T07
X158000Y225000
Y235000
Y245000
Y255000
T08
X145758Y17079
X178042
T09
X118000Y22818
X245000Y21900
Y91500
X118000Y92418
X117347Y329500
X86000Y314000
X64346
X32654Y284000
X11000
X181500Y284347
X181500Y306000
X192154Y333500
X170500
X139000Y329500
X223847Y327500
X245500
X276847Y312000
X298500
X329847Y284000
X351500
T10
X181500Y266500
M30
